{
	"type": "Root",
	"name": "rootNode",
	"childNodes": [
		{
			"type": "FickleSelector",
			"name": "rootNode",
			"childNodes": [
				{
					"type": "Die",
					"decorators": [
						{
							"type": "If",
							"properties": [
								{
									"name": "Field",
									"value": "health"
								},
								{
									"name": "Comparator",
									"value": "<"
								},
								{
									"name": "Value",
									"value": "0.01"
								}
							]
						}
					]
				},
				{
					"type": "RunJob",
					"properties": [
						{
							"name": "Job",
							"value": "CollapseFromExhaustion"
						}
					],
					"decorators": [
						{
							"type": "If",
							"properties": [
								{
									"name": "Comparator",
									"value": "<"
								},
								{
									"name": "Value",
									"value": "0.01"
								},
								{
									"name": "Field",
									"value": "energy"
								}
							]
						}
					]
				},
				{
					"type": "Priority",
					"childNodes": [
						{
							"type": "Sequence",
							"decorators": [
								{
									"type": "If",
									"properties": [
										{
											"name": "Comparator",
											"value": "<"
										},
										{
											"name": "Value",
											"value": "0.01"
										},
										{
											"name": "Field",
											"value": "satiation"
										}
									]
								}
							],
							"childNodes": [
								{
									"type": "EnsureInventory",
									"properties": [
										{
											"name": "Item",
											"value": "group:food"
										}
									]
								},
								{
									"type": "Selector",
									"childNodes": [
										{
											"type": "RunJob"
										},
										{
											"type": "RunJob",
											"properties": [
												{
													"name": "Job",
													"value": "ReturnItem"
												}
											]
										}
									]
								}
							]
						},
						{
							"type": "FindWork"
						}
					]
				}
			]
		}
	]
}
